GrammarMap {
    grammar: Grammar {
        rules: [
            Node(
                1,
            ),
            Node(
                17,
            ),
            Node(
                17,
            ),
            Node(
                11,
            ),
            Node(
                18,
            ),
            Node(
                2,
            ),
            Token(
                10,
            ),
            Node(
                19,
            ),
            Node(
                2,
            ),
            Node(
                18,
            ),
            Token(
                4,
            ),
            Token(
                23,
            ),
            Node(
                19,
            ),
            Token(
                24,
            ),
            Node(
                11,
            ),
            Node(
                20,
            ),
            Node(
                20,
            ),
            Token(
                5,
            ),
            Token(
                28,
            ),
            Token(
                23,
            ),
            Node(
                4,
            ),
            Token(
                24,
            ),
            Node(
                11,
            ),
            Node(
                21,
            ),
            Node(
                21,
            ),
            Token(
                6,
            ),
            Token(
                23,
            ),
            Token(
                30,
            ),
            Token(
                10,
            ),
            Node(
                14,
            ),
            Token(
                24,
            ),
            Node(
                11,
            ),
            Node(
                22,
            ),
            Node(
                22,
            ),
            Token(
                28,
            ),
            Token(
                8,
            ),
            Node(
                3,
            ),
            Token(
                29,
            ),
            Token(
                7,
            ),
            Token(
                19,
            ),
            Token(
                30,
            ),
            Token(
                20,
            ),
            Node(
                6,
            ),
            Token(
                10,
            ),
            Node(
                23,
            ),
            Node(
                6,
            ),
            Node(
                23,
            ),
            Node(
                5,
            ),
            Node(
                5,
            ),
            Node(
                24,
            ),
            Node(
                24,
            ),
            Node(
                11,
            ),
            Node(
                25,
            ),
            Node(
                6,
            ),
            Token(
                10,
            ),
            Node(
                26,
            ),
            Node(
                6,
            ),
            Token(
                25,
            ),
            Node(
                25,
            ),
            Token(
                28,
            ),
            Token(
                26,
            ),
            Node(
                26,
            ),
            Node(
                11,
            ),
            Node(
                27,
            ),
            Node(
                8,
            ),
            Node(
                28,
            ),
            Node(
                27,
            ),
            Node(
                7,
            ),
            Token(
                8,
            ),
            Node(
                28,
            ),
            Token(
                28,
            ),
            Token(
                31,
            ),
            Token(
                27,
            ),
            Node(
                10,
            ),
            Node(
                9,
            ),
            Node(
                29,
            ),
            Token(
                28,
            ),
            Token(
                29,
            ),
            Node(
                8,
            ),
            Node(
                30,
            ),
            Token(
                19,
            ),
            Node(
                30,
            ),
            Token(
                20,
            ),
            Token(
                11,
            ),
            Token(
                12,
            ),
            Token(
                13,
            ),
            Token(
                14,
            ),
            Token(
                15,
            ),
            Token(
                16,
            ),
            Token(
                17,
            ),
            Token(
                3,
            ),
            Node(
                12,
            ),
            Node(
                13,
            ),
            Token(
                10,
            ),
            Node(
                13,
            ),
            Token(
                10,
            ),
            Node(
                31,
            ),
            Node(
                13,
            ),
            Token(
                18,
            ),
            Token(
                21,
            ),
            Node(
                31,
            ),
            Token(
                22,
            ),
            Token(
                28,
            ),
            Token(
                31,
            ),
            Token(
                30,
            ),
            Token(
                29,
            ),
            Node(
                13,
            ),
            Token(
                10,
            ),
            Node(
                32,
            ),
            Node(
                13,
            ),
            Token(
                28,
            ),
            Token(
                19,
            ),
            Node(
                32,
            ),
            Token(
                20,
            ),
            Node(
                16,
            ),
            Token(
                10,
            ),
            Node(
                33,
            ),
            Node(
                16,
            ),
            Node(
                15,
            ),
            Token(
                23,
            ),
            Node(
                33,
            ),
            Token(
                24,
            ),
            Token(
                28,
            ),
            Token(
                28,
            ),
            Token(
                9,
            ),
            Token(
                28,
            ),
            Token(
                30,
            ),
            Node(
                14,
            ),
        ],
        rules_indices: {
            5: [
                (
                    57,
                    62,
                ),
            ],
            32: [
                (
                    106,
                    106,
                ),
                (
                    106,
                    109,
                ),
                (
                    109,
                    110,
                ),
            ],
            14: [
                (
                    118,
                    122,
                ),
            ],
            13: [
                (
                    102,
                    103,
                ),
                (
                    103,
                    104,
                ),
                (
                    104,
                    105,
                ),
                (
                    105,
                    106,
                ),
                (
                    110,
                    114,
                ),
            ],
            15: [
                (
                    122,
                    123,
                ),
                (
                    123,
                    126,
                ),
            ],
            29: [
                (
                    73,
                    73,
                ),
                (
                    73,
                    74,
                ),
            ],
            16: [
                (
                    126,
                    127,
                ),
                (
                    127,
                    128,
                ),
            ],
            24: [
                (
                    47,
                    48,
                ),
                (
                    48,
                    50,
                ),
            ],
            4: [
                (
                    46,
                    47,
                ),
                (
                    50,
                    51,
                ),
            ],
            3: [
                (
                    37,
                    38,
                ),
                (
                    38,
                    42,
                ),
            ],
            10: [
                (
                    83,
                    84,
                ),
                (
                    84,
                    85,
                ),
                (
                    85,
                    86,
                ),
                (
                    86,
                    87,
                ),
                (
                    87,
                    88,
                ),
                (
                    88,
                    89,
                ),
                (
                    89,
                    90,
                ),
            ],
            19: [
                (
                    5,
                    5,
                ),
                (
                    5,
                    8,
                ),
                (
                    8,
                    9,
                ),
            ],
            22: [
                (
                    31,
                    31,
                ),
                (
                    31,
                    33,
                ),
            ],
            12: [
                (
                    98,
                    102,
                ),
            ],
            9: [
                (
                    76,
                    77,
                ),
                (
                    77,
                    78,
                ),
                (
                    80,
                    83,
                ),
            ],
            33: [
                (
                    114,
                    114,
                ),
                (
                    114,
                    117,
                ),
                (
                    117,
                    118,
                ),
            ],
            20: [
                (
                    14,
                    14,
                ),
                (
                    14,
                    16,
                ),
            ],
            21: [
                (
                    22,
                    22,
                ),
                (
                    22,
                    24,
                ),
            ],
            0: [
                (
                    2,
                    3,
                ),
            ],
            30: [
                (
                    78,
                    78,
                ),
                (
                    78,
                    80,
                ),
            ],
            2: [
                (
                    33,
                    37,
                ),
            ],
            18: [
                (
                    3,
                    3,
                ),
                (
                    3,
                    5,
                ),
            ],
            25: [
                (
                    51,
                    51,
                ),
                (
                    51,
                    53,
                ),
            ],
            28: [
                (
                    64,
                    64,
                ),
                (
                    64,
                    66,
                ),
            ],
            31: [
                (
                    92,
                    94,
                ),
                (
                    94,
                    97,
                ),
                (
                    97,
                    98,
                ),
            ],
            17: [
                (
                    0,
                    0,
                ),
                (
                    0,
                    2,
                ),
            ],
            8: [
                (
                    74,
                    76,
                ),
            ],
            23: [
                (
                    42,
                    42,
                ),
                (
                    42,
                    45,
                ),
                (
                    45,
                    46,
                ),
            ],
            11: [
                (
                    90,
                    91,
                ),
                (
                    91,
                    92,
                ),
            ],
            26: [
                (
                    53,
                    53,
                ),
                (
                    53,
                    56,
                ),
                (
                    56,
                    57,
                ),
            ],
            1: [
                (
                    9,
                    14,
                ),
                (
                    16,
                    22,
                ),
                (
                    24,
                    31,
                ),
            ],
            7: [
                (
                    70,
                    71,
                ),
                (
                    71,
                    72,
                ),
                (
                    72,
                    73,
                ),
            ],
            6: [
                (
                    66,
                    70,
                ),
            ],
            27: [
                (
                    62,
                    62,
                ),
                (
                    62,
                    64,
                ),
            ],
        },
        conflicts_solver: [],
    },
    name_to_symbol: {
        "BRACKET_LEFT": Token(
            21,
        ),
        "STAR_UNDERSCORE": Token(
            12,
        ),
        "TestValue": Node(
            14,
        ),
        "SHARP": Token(
            18,
        ),
        "Item": Node(
            8,
        ),
        "Attribute": Node(
            11,
        ),
        "UNDERSCORE_PLUS": Token(
            16,
        ),
        "Modifier": Node(
            10,
        ),
        "STRING": Token(
            30,
        ),
        "TopLevelItem": Node(
            1,
        ),
        "ID": Token(
            28,
        ),
        "TokenDef": Node(
            3,
        ),
        "WHITESPACE": Token(
            2,
        ),
        "PLUS": Token(
            14,
        ),
        "Token": Node(
            2,
        ),
        "UNDERSCORE_STAR": Token(
            13,
        ),
        "MULTILINE_COMMENT": Token(
            1,
        ),
        "BRACKET_RIGHT": Token(
            22,
        ),
        "TOKEN_STR": Token(
            29,
        ),
        "COLON": Token(
            8,
        ),
        "INT": Token(
            31,
        ),
        "Label": Node(
            7,
        ),
        "BRACE_RIGHT": Token(
            24,
        ),
        "Block": Node(
            4,
        ),
        "NormalAttribute": Node(
            12,
        ),
        "COMMA": Token(
            10,
        ),
        "NODE_KW": Token(
            5,
        ),
        "File": Node(
            0,
        ),
        "TEST_KW": Token(
            6,
        ),
        "COLON_COLON": Token(
            9,
        ),
        "PAR_RIGHT": Token(
            20,
        ),
        "BAR": Token(
            25,
        ),
        "PLUS_UNDERSCORE": Token(
            15,
        ),
        "ARROW": Token(
            26,
        ),
        "UNDERSCORE": Token(
            27,
        ),
        "AttributeItem": Node(
            13,
        ),
        "REGEX_KW": Token(
            7,
        ),
        "COMMENT": Token(
            0,
        ),
        "PAR_LEFT": Token(
            19,
        ),
        "TOKENS_KW": Token(
            4,
        ),
        "TestNodeName": Node(
            15,
        ),
        "DOC_COMMENT": Token(
            3,
        ),
        "QUESTION": Token(
            17,
        ),
        "Variant": Node(
            5,
        ),
        "STAR": Token(
            11,
        ),
        "BRACE_LEFT": Token(
            23,
        ),
        "Field": Node(
            6,
        ),
        "Primary": Node(
            9,
        ),
        "InnerTestValue": Node(
            16,
        ),
    },
    tokens: [
        TokenInMap {
            source_span: 1049..1076,
            documentation: "",
            name: "COMMENT",
            expression: "//[^\\n]*",
            is_regex: true,
            callback: None,
            into: None,
            kind: Skip(
                0,
            ),
            remap: None,
        },
        TokenInMap {
            source_span: 1126..1158,
            documentation: "",
            name: "MULTILINE_COMMENT",
            expression: "/\\*",
            is_regex: true,
            callback: Some(
                "multiline_comment",
            ),
            into: None,
            kind: Skip(
                1,
            ),
            remap: None,
        },
        TokenInMap {
            source_span: 1235..1262,
            documentation: "",
            name: "WHITESPACE",
            expression: "[\\s]+",
            is_regex: true,
            callback: None,
            into: None,
            kind: Skip(
                2,
            ),
            remap: None,
        },
        TokenInMap {
            source_span: 1298..1330,
            documentation: "",
            name: "DOC_COMMENT",
            expression: "///[^\\n]*",
            is_regex: true,
            callback: None,
            into: Some(
                "doc_comment_to_string",
            ),
            kind: Normal(
                3,
            ),
            remap: None,
        },
        TokenInMap {
            source_span: 1336..1355,
            documentation: "",
            name: "TOKENS_KW",
            expression: "tokens",
            is_regex: false,
            callback: None,
            into: None,
            kind: Normal(
                4,
            ),
            remap: None,
        },
        TokenInMap {
            source_span: 1361..1376,
            documentation: "",
            name: "NODE_KW",
            expression: "node",
            is_regex: false,
            callback: None,
            into: None,
            kind: Normal(
                5,
            ),
            remap: None,
        },
        TokenInMap {
            source_span: 1382..1397,
            documentation: "",
            name: "TEST_KW",
            expression: "test",
            is_regex: false,
            callback: None,
            into: None,
            kind: Normal(
                6,
            ),
            remap: None,
        },
        TokenInMap {
            source_span: 1400..1417,
            documentation: "",
            name: "REGEX_KW",
            expression: "regex",
            is_regex: false,
            callback: None,
            into: None,
            kind: Normal(
                7,
            ),
            remap: None,
        },
        TokenInMap {
            source_span: 1423..1433,
            documentation: "",
            name: "COLON",
            expression: ":",
            is_regex: false,
            callback: None,
            into: None,
            kind: Normal(
                8,
            ),
            remap: None,
        },
        TokenInMap {
            source_span: 1439..1456,
            documentation: "",
            name: "COLON_COLON",
            expression: "::",
            is_regex: false,
            callback: None,
            into: None,
            kind: Normal(
                9,
            ),
            remap: None,
        },
        TokenInMap {
            source_span: 1462..1472,
            documentation: "",
            name: "COMMA",
            expression: ",",
            is_regex: false,
            callback: None,
            into: None,
            kind: Normal(
                10,
            ),
            remap: None,
        },
        TokenInMap {
            source_span: 1478..1487,
            documentation: "",
            name: "STAR",
            expression: "*",
            is_regex: false,
            callback: None,
            into: None,
            kind: Normal(
                11,
            ),
            remap: None,
        },
        TokenInMap {
            source_span: 1493..1514,
            documentation: "",
            name: "STAR_UNDERSCORE",
            expression: "*_",
            is_regex: false,
            callback: None,
            into: None,
            kind: Normal(
                12,
            ),
            remap: None,
        },
        TokenInMap {
            source_span: 1520..1541,
            documentation: "",
            name: "UNDERSCORE_STAR",
            expression: "_*",
            is_regex: false,
            callback: None,
            into: None,
            kind: Normal(
                13,
            ),
            remap: None,
        },
        TokenInMap {
            source_span: 1547..1556,
            documentation: "",
            name: "PLUS",
            expression: "+",
            is_regex: false,
            callback: None,
            into: None,
            kind: Normal(
                14,
            ),
            remap: None,
        },
        TokenInMap {
            source_span: 1562..1583,
            documentation: "",
            name: "PLUS_UNDERSCORE",
            expression: "+_",
            is_regex: false,
            callback: None,
            into: None,
            kind: Normal(
                15,
            ),
            remap: None,
        },
        TokenInMap {
            source_span: 1589..1610,
            documentation: "",
            name: "UNDERSCORE_PLUS",
            expression: "_+",
            is_regex: false,
            callback: None,
            into: None,
            kind: Normal(
                16,
            ),
            remap: None,
        },
        TokenInMap {
            source_span: 1616..1629,
            documentation: "",
            name: "QUESTION",
            expression: "?",
            is_regex: false,
            callback: None,
            into: None,
            kind: Normal(
                17,
            ),
            remap: None,
        },
        TokenInMap {
            source_span: 1635..1645,
            documentation: "",
            name: "SHARP",
            expression: "#",
            is_regex: false,
            callback: None,
            into: None,
            kind: Normal(
                18,
            ),
            remap: None,
        },
        TokenInMap {
            source_span: 1651..1664,
            documentation: "",
            name: "PAR_LEFT",
            expression: "(",
            is_regex: false,
            callback: None,
            into: None,
            kind: Normal(
                19,
            ),
            remap: None,
        },
        TokenInMap {
            source_span: 1670..1684,
            documentation: "",
            name: "PAR_RIGHT",
            expression: ")",
            is_regex: false,
            callback: None,
            into: None,
            kind: Normal(
                20,
            ),
            remap: None,
        },
        TokenInMap {
            source_span: 1690..1707,
            documentation: "",
            name: "BRACKET_LEFT",
            expression: "[",
            is_regex: false,
            callback: None,
            into: None,
            kind: Normal(
                21,
            ),
            remap: None,
        },
        TokenInMap {
            source_span: 1713..1731,
            documentation: "",
            name: "BRACKET_RIGHT",
            expression: "]",
            is_regex: false,
            callback: None,
            into: None,
            kind: Normal(
                22,
            ),
            remap: None,
        },
        TokenInMap {
            source_span: 1737..1752,
            documentation: "",
            name: "BRACE_LEFT",
            expression: "{",
            is_regex: false,
            callback: None,
            into: None,
            kind: Normal(
                23,
            ),
            remap: None,
        },
        TokenInMap {
            source_span: 1758..1774,
            documentation: "",
            name: "BRACE_RIGHT",
            expression: "}",
            is_regex: false,
            callback: None,
            into: None,
            kind: Normal(
                24,
            ),
            remap: None,
        },
        TokenInMap {
            source_span: 1777..1785,
            documentation: "",
            name: "BAR",
            expression: "|",
            is_regex: false,
            callback: None,
            into: None,
            kind: Normal(
                25,
            ),
            remap: None,
        },
        TokenInMap {
            source_span: 1788..1799,
            documentation: "",
            name: "ARROW",
            expression: "=>",
            is_regex: false,
            callback: None,
            into: None,
            kind: Normal(
                26,
            ),
            remap: None,
        },
        TokenInMap {
            source_span: 1805..1820,
            documentation: "",
            name: "UNDERSCORE",
            expression: "_",
            is_regex: false,
            callback: None,
            into: None,
            kind: Normal(
                27,
            ),
            remap: None,
        },
        TokenInMap {
            source_span: 1849..1912,
            documentation: "",
            name: "ID",
            expression: "(r#[a-zA-Z_][0-9a-zA-Z_]*|[a-zA-Z_][0-9a-zA-Z_]*)",
            is_regex: true,
            callback: None,
            into: Some(
                "id_to_string",
            ),
            kind: Normal(
                28,
            ),
            remap: None,
        },
        TokenInMap {
            source_span: 1948..1992,
            documentation: "",
            name: "TOKEN_STR",
            expression: "(\'(?:[^\'\\\\]|\\.)*\'|r#*\')",
            is_regex: true,
            callback: None,
            into: Some(
                "token_str_to_string",
            ),
            kind: Normal(
                29,
            ),
            remap: None,
        },
        TokenInMap {
            source_span: 2061..2104,
            documentation: "",
            name: "STRING",
            expression: "(\"(?:[^\"\\\\]|\\.)*\"|r#*\")",
            is_regex: true,
            callback: Some(
                "raw_string_literal",
            ),
            into: Some(
                "string_to_string",
            ),
            kind: Normal(
                30,
            ),
            remap: None,
        },
        TokenInMap {
            source_span: 2130..2156,
            documentation: "",
            name: "INT",
            expression: "[0-9][0-9_]*",
            is_regex: true,
            callback: None,
            into: Some(
                "parse_int",
            ),
            kind: Normal(
                31,
            ),
            remap: None,
        },
    ],
    span_to_token: {
        1562..1583: 15,
        1690..1707: 21,
        1423..1433: 8,
        1547..1556: 14,
        1298..1330: 3,
        1737..1752: 23,
        1361..1376: 5,
        1439..1456: 9,
        2061..2104: 30,
        1382..1397: 6,
        1493..1514: 12,
        1788..1799: 26,
        1478..1487: 11,
        1589..1610: 16,
        1758..1774: 24,
        1651..1664: 19,
        1336..1355: 4,
        1948..1992: 29,
        2130..2156: 31,
        1126..1158: 1,
        1235..1262: 2,
        1635..1645: 18,
        1849..1912: 28,
        1400..1417: 7,
        1670..1684: 20,
        1520..1541: 13,
        1462..1472: 10,
        1713..1731: 22,
        1049..1076: 0,
        1777..1785: 25,
        1805..1820: 27,
        1616..1629: 17,
    },
    token_str_to_token: {
        "+": 14,
        ":": 8,
        "(": 19,
        "{": 23,
        "+_": 15,
        ",": 10,
        "node": 5,
        "*_": 12,
        "::": 9,
        "_+": 16,
        ")": 20,
        "[": 21,
        "]": 22,
        "?": 17,
        "}": 24,
        "tokens": 4,
        "test": 6,
        "|": 25,
        "regex": 7,
        "=>": 26,
        "*": 11,
        "_": 27,
        "#": 18,
        "_*": 13,
    },
    nodes: [
        NodeInMap {
            source_span: 2161..2218,
            name: Some(
                "File",
            ),
            variants: [
                (
                    RuleIdx {
                        lhs: 0,
                        index: 0,
                    },
                    Some(
                        2186..2216,
                    ),
                ),
            ],
            documentation: "",
        },
        NodeInMap {
            source_span: 2220..2864,
            name: Some(
                "TopLevelItem",
            ),
            variants: [
                (
                    RuleIdx {
                        lhs: 1,
                        index: 0,
                    },
                    Some(
                        2244..2406,
                    ),
                ),
                (
                    RuleIdx {
                        lhs: 1,
                        index: 1,
                    },
                    Some(
                        2411..2629,
                    ),
                ),
                (
                    RuleIdx {
                        lhs: 1,
                        index: 2,
                    },
                    Some(
                        2634..2862,
                    ),
                ),
            ],
            documentation: "",
        },
        NodeInMap {
            source_span: 2866..3046,
            name: Some(
                "Token",
            ),
            variants: [
                (
                    RuleIdx {
                        lhs: 2,
                        index: 0,
                    },
                    Some(
                        2883..3017,
                    ),
                ),
            ],
            documentation: "",
        },
        NodeInMap {
            source_span: 3048..3184,
            name: Some(
                "TokenDef",
            ),
            variants: [
                (
                    RuleIdx {
                        lhs: 3,
                        index: 0,
                    },
                    Some(
                        3065..3086,
                    ),
                ),
                (
                    RuleIdx {
                        lhs: 3,
                        index: 1,
                    },
                    Some(
                        3103..3182,
                    ),
                ),
            ],
            documentation: "",
        },
        NodeInMap {
            source_span: 3186..3320,
            name: Some(
                "Block",
            ),
            variants: [
                (
                    RuleIdx {
                        lhs: 4,
                        index: 0,
                    },
                    Some(
                        3203..3231,
                    ),
                ),
                (
                    RuleIdx {
                        lhs: 4,
                        index: 1,
                    },
                    Some(
                        3261..3286,
                    ),
                ),
            ],
            documentation: "",
        },
        NodeInMap {
            source_span: 3322..3477,
            name: Some(
                "Variant",
            ),
            variants: [
                (
                    RuleIdx {
                        lhs: 5,
                        index: 0,
                    },
                    Some(
                        3338..3453,
                    ),
                ),
            ],
            documentation: "",
        },
        NodeInMap {
            source_span: 3864..4026,
            name: Some(
                "Field",
            ),
            variants: [
                (
                    RuleIdx {
                        lhs: 6,
                        index: 0,
                    },
                    Some(
                        3878..4003,
                    ),
                ),
            ],
            documentation: "",
        },
        NodeInMap {
            source_span: 4028..4166,
            name: Some(
                "Label",
            ),
            variants: [
                (
                    RuleIdx {
                        lhs: 7,
                        index: 0,
                    },
                    Some(
                        4045..4066,
                    ),
                ),
                (
                    RuleIdx {
                        lhs: 7,
                        index: 1,
                    },
                    Some(
                        4086..4108,
                    ),
                ),
                (
                    RuleIdx {
                        lhs: 7,
                        index: 2,
                    },
                    Some(
                        4128..4150,
                    ),
                ),
            ],
            documentation: "",
        },
        NodeInMap {
            source_span: 4446..4557,
            name: Some(
                "Item",
            ),
            variants: [
                (
                    RuleIdx {
                        lhs: 8,
                        index: 0,
                    },
                    Some(
                        4462..4525,
                    ),
                ),
            ],
            documentation: "",
        },
        NodeInMap {
            source_span: 4559..4775,
            name: Some(
                "Primary",
            ),
            variants: [
                (
                    RuleIdx {
                        lhs: 9,
                        index: 0,
                    },
                    Some(
                        4578..4594,
                    ),
                ),
                (
                    RuleIdx {
                        lhs: 9,
                        index: 1,
                    },
                    Some(
                        4626..4652,
                    ),
                ),
                (
                    RuleIdx {
                        lhs: 9,
                        index: 2,
                    },
                    Some(
                        4677..4773,
                    ),
                ),
            ],
            documentation: "",
        },
        NodeInMap {
            source_span: 4777..5090,
            name: Some(
                "Modifier",
            ),
            variants: [
                (
                    RuleIdx {
                        lhs: 10,
                        index: 0,
                    },
                    Some(
                        4797..4821,
                    ),
                ),
                (
                    RuleIdx {
                        lhs: 10,
                        index: 1,
                    },
                    Some(
                        4837..4862,
                    ),
                ),
                (
                    RuleIdx {
                        lhs: 10,
                        index: 2,
                    },
                    Some(
                        4879..4904,
                    ),
                ),
                (
                    RuleIdx {
                        lhs: 10,
                        index: 3,
                    },
                    Some(
                        4921..4945,
                    ),
                ),
                (
                    RuleIdx {
                        lhs: 10,
                        index: 4,
                    },
                    Some(
                        4959..4984,
                    ),
                ),
                (
                    RuleIdx {
                        lhs: 10,
                        index: 5,
                    },
                    Some(
                        5005..5030,
                    ),
                ),
                (
                    RuleIdx {
                        lhs: 10,
                        index: 6,
                    },
                    Some(
                        5051..5075,
                    ),
                ),
            ],
            documentation: "",
        },
        NodeInMap {
            source_span: 5092..5216,
            name: Some(
                "Attribute",
            ),
            variants: [
                (
                    RuleIdx {
                        lhs: 11,
                        index: 0,
                    },
                    Some(
                        5159..5182,
                    ),
                ),
                (
                    RuleIdx {
                        lhs: 11,
                        index: 1,
                    },
                    Some(
                        5184..5214,
                    ),
                ),
            ],
            documentation: "Either a doc comment, or a normal attribute.",
        },
        NodeInMap {
            source_span: 5218..5385,
            name: Some(
                "NormalAttribute",
            ),
            variants: [
                (
                    RuleIdx {
                        lhs: 12,
                        index: 0,
                    },
                    Some(
                        5280..5383,
                    ),
                ),
            ],
            documentation: "An attribute of the form `#[...]`",
        },
        NodeInMap {
            source_span: 5387..5762,
            name: Some(
                "AttributeItem",
            ),
            variants: [
                (
                    RuleIdx {
                        lhs: 13,
                        index: 0,
                    },
                    Some(
                        5412..5425,
                    ),
                ),
                (
                    RuleIdx {
                        lhs: 13,
                        index: 1,
                    },
                    Some(
                        5457..5472,
                    ),
                ),
                (
                    RuleIdx {
                        lhs: 13,
                        index: 2,
                    },
                    Some(
                        5500..5521,
                    ),
                ),
                (
                    RuleIdx {
                        lhs: 13,
                        index: 3,
                    },
                    Some(
                        5549..5575,
                    ),
                ),
                (
                    RuleIdx {
                        lhs: 13,
                        index: 4,
                    },
                    Some(
                        5600..5760,
                    ),
                ),
            ],
            documentation: "",
        },
        NodeInMap {
            source_span: 5764..5882,
            name: Some(
                "TestValue",
            ),
            variants: [
                (
                    RuleIdx {
                        lhs: 14,
                        index: 0,
                    },
                    Some(
                        5785..5880,
                    ),
                ),
            ],
            documentation: "",
        },
        NodeInMap {
            source_span: 5884..5966,
            name: Some(
                "TestNodeName",
            ),
            variants: [
                (
                    RuleIdx {
                        lhs: 15,
                        index: 0,
                    },
                    Some(
                        5908..5925,
                    ),
                ),
                (
                    RuleIdx {
                        lhs: 15,
                        index: 1,
                    },
                    Some(
                        5930..5964,
                    ),
                ),
            ],
            documentation: "",
        },
        NodeInMap {
            source_span: 5968..6045,
            name: Some(
                "InnerTestValue",
            ),
            variants: [
                (
                    RuleIdx {
                        lhs: 16,
                        index: 0,
                    },
                    Some(
                        5994..6014,
                    ),
                ),
                (
                    RuleIdx {
                        lhs: 16,
                        index: 1,
                    },
                    Some(
                        6019..6043,
                    ),
                ),
            ],
            documentation: "",
        },
        NodeInMap {
            source_span: 2203..2216,
            name: None,
            variants: [
                (
                    RuleIdx {
                        lhs: 17,
                        index: 0,
                    },
                    None,
                ),
                (
                    RuleIdx {
                        lhs: 17,
                        index: 1,
                    },
                    None,
                ),
            ],
            documentation: "",
        },
        NodeInMap {
            source_span: 2276..2286,
            name: None,
            variants: [
                (
                    RuleIdx {
                        lhs: 18,
                        index: 0,
                    },
                    None,
                ),
                (
                    RuleIdx {
                        lhs: 18,
                        index: 1,
                    },
                    None,
                ),
            ],
            documentation: "",
        },
        NodeInMap {
            source_span: 2362..2375,
            name: None,
            variants: [
                (
                    RuleIdx {
                        lhs: 19,
                        index: 0,
                    },
                    None,
                ),
                (
                    RuleIdx {
                        lhs: 19,
                        index: 2,
                    },
                    None,
                ),
                (
                    RuleIdx {
                        lhs: 19,
                        index: 1,
                    },
                    None,
                ),
            ],
            documentation: "",
        },
        NodeInMap {
            source_span: 2441..2451,
            name: None,
            variants: [
                (
                    RuleIdx {
                        lhs: 20,
                        index: 0,
                    },
                    None,
                ),
                (
                    RuleIdx {
                        lhs: 20,
                        index: 1,
                    },
                    None,
                ),
            ],
            documentation: "",
        },
        NodeInMap {
            source_span: 2664..2674,
            name: None,
            variants: [
                (
                    RuleIdx {
                        lhs: 21,
                        index: 0,
                    },
                    None,
                ),
                (
                    RuleIdx {
                        lhs: 21,
                        index: 1,
                    },
                    None,
                ),
            ],
            documentation: "",
        },
        NodeInMap {
            source_span: 2895..2905,
            name: None,
            variants: [
                (
                    RuleIdx {
                        lhs: 22,
                        index: 0,
                    },
                    None,
                ),
                (
                    RuleIdx {
                        lhs: 22,
                        index: 1,
                    },
                    None,
                ),
            ],
            documentation: "",
        },
        NodeInMap {
            source_span: 3218..3231,
            name: None,
            variants: [
                (
                    RuleIdx {
                        lhs: 23,
                        index: 0,
                    },
                    None,
                ),
                (
                    RuleIdx {
                        lhs: 23,
                        index: 2,
                    },
                    None,
                ),
                (
                    RuleIdx {
                        lhs: 23,
                        index: 1,
                    },
                    None,
                ),
            ],
            documentation: "",
        },
        NodeInMap {
            source_span: 3278..3286,
            name: None,
            variants: [
                (
                    RuleIdx {
                        lhs: 24,
                        index: 0,
                    },
                    None,
                ),
                (
                    RuleIdx {
                        lhs: 24,
                        index: 1,
                    },
                    None,
                ),
            ],
            documentation: "",
        },
        NodeInMap {
            source_span: 3359..3369,
            name: None,
            variants: [
                (
                    RuleIdx {
                        lhs: 25,
                        index: 0,
                    },
                    None,
                ),
                (
                    RuleIdx {
                        lhs: 25,
                        index: 1,
                    },
                    None,
                ),
            ],
            documentation: "",
        },
        NodeInMap {
            source_span: 3439..3452,
            name: None,
            variants: [
                (
                    RuleIdx {
                        lhs: 26,
                        index: 0,
                    },
                    None,
                ),
                (
                    RuleIdx {
                        lhs: 26,
                        index: 2,
                    },
                    None,
                ),
                (
                    RuleIdx {
                        lhs: 26,
                        index: 1,
                    },
                    None,
                ),
            ],
            documentation: "",
        },
        NodeInMap {
            source_span: 3890..3900,
            name: None,
            variants: [
                (
                    RuleIdx {
                        lhs: 27,
                        index: 0,
                    },
                    None,
                ),
                (
                    RuleIdx {
                        lhs: 27,
                        index: 1,
                    },
                    None,
                ),
            ],
            documentation: "",
        },
        NodeInMap {
            source_span: 3998..4003,
            name: None,
            variants: [
                (
                    RuleIdx {
                        lhs: 28,
                        index: 0,
                    },
                    None,
                ),
                (
                    RuleIdx {
                        lhs: 28,
                        index: 1,
                    },
                    None,
                ),
            ],
            documentation: "",
        },
        NodeInMap {
            source_span: 4516..4525,
            name: None,
            variants: [
                (
                    RuleIdx {
                        lhs: 29,
                        index: 0,
                    },
                    None,
                ),
                (
                    RuleIdx {
                        lhs: 29,
                        index: 1,
                    },
                    None,
                ),
            ],
            documentation: "",
        },
        NodeInMap {
            source_span: 4752..4757,
            name: None,
            variants: [
                (
                    RuleIdx {
                        lhs: 30,
                        index: 0,
                    },
                    None,
                ),
                (
                    RuleIdx {
                        lhs: 30,
                        index: 1,
                    },
                    None,
                ),
            ],
            documentation: "",
        },
        NodeInMap {
            source_span: 5312..5333,
            name: None,
            variants: [
                (
                    RuleIdx {
                        lhs: 31,
                        index: 2,
                    },
                    None,
                ),
                (
                    RuleIdx {
                        lhs: 31,
                        index: 0,
                    },
                    None,
                ),
                (
                    RuleIdx {
                        lhs: 31,
                        index: 1,
                    },
                    None,
                ),
            ],
            documentation: "",
        },
        NodeInMap {
            source_span: 5723..5744,
            name: None,
            variants: [
                (
                    RuleIdx {
                        lhs: 32,
                        index: 0,
                    },
                    None,
                ),
                (
                    RuleIdx {
                        lhs: 32,
                        index: 2,
                    },
                    None,
                ),
                (
                    RuleIdx {
                        lhs: 32,
                        index: 1,
                    },
                    None,
                ),
            ],
            documentation: "",
        },
        NodeInMap {
            source_span: 5845..5867,
            name: None,
            variants: [
                (
                    RuleIdx {
                        lhs: 33,
                        index: 0,
                    },
                    None,
                ),
                (
                    RuleIdx {
                        lhs: 33,
                        index: 2,
                    },
                    None,
                ),
                (
                    RuleIdx {
                        lhs: 33,
                        index: 1,
                    },
                    None,
                ),
            ],
            documentation: "",
        },
    ],
    span_to_node: {
        4446..4557: 8,
        5968..6045: 16,
        4559..4775: 9,
        5387..5762: 13,
        4777..5090: 10,
        2866..3046: 2,
        4028..4166: 7,
        2220..2864: 1,
        2161..2218: 0,
        5218..5385: 12,
        5884..5966: 15,
        5764..5882: 14,
        3322..3477: 5,
        3186..3320: 4,
        3048..3184: 3,
        3864..4026: 6,
        5092..5216: 11,
    },
    silent_nodes_begin: 17,
    starting_node: 0,
}